2 Drought prediction – Drought Predictors Competition
…
df_raw

# A tibble: 101,199 × 18
   site   date        flue is_flue_drought cluster   NR_B1 NR_B2   NR_B3  NR_B4
   <chr>  <date>     <dbl> <lgl>           <chr>     <dbl> <dbl>   <dbl>  <dbl>
 1 AR-Vir 2010-02-05 0.931 TRUE            cGR      0.0262 0.383  0.0139 0.0549
 2 AR-Vir 2010-02-07 0.922 TRUE            cGR      0.0265 0.384  0.0144 0.0578
 3 AR-Vir 2010-02-10 0.905 TRUE            cGR      0.0241 0.372  0.0145 0.0573
 4 AR-Vir 2010-02-12 0.920 TRUE            cGR      0.0225 0.364  0.0132 0.0579
 5 AR-Vir 2010-02-13 0.915 TRUE            cGR      0.0224 0.363  0.0132 0.0574
 6 AR-Vir 2010-02-14 0.960 TRUE            cGR      0.0223 0.362  0.0131 0.0569
 7 AR-Vir 2010-02-17 0.974 TRUE            cGR      0.0215 0.346  0.0132 0.0493
 8 AR-Vir 2010-02-21 0.964 TRUE            cGR     NA      0.322 NA      0.046 
 9 AR-Vir 2010-02-22 0.967 TRUE            cGR      0.0206 0.324 NA      0.0372
10 AR-Vir 2010-02-23 0.972 TRUE            cGR      0.0232 0.343  0.0119 0.0382
# ℹ 101,189 more rows
# ℹ 9 more variables: NR_B5 <dbl>, NR_B6 <dbl>, NR_B7 <dbl>, LST <dbl>,
#   t2m_era5 <dbl>, ssrd_era5 <dbl>, pcwd_era5 <dbl>, vegtype <chr>,
#   cluster_vegtype <chr>
…
